{
    "$schema": "./config.schema.json",
    "database": {
        "host": "",
        "port": 3306,
        "database": "stickerbot",
        "username": "stickerbot",
        "password": "",
        "charset": "utf8mb4",
        "timezone": "+00:00"
    },
    "moderation": {
        "bucketSize": 20,
        "normalNoiseScore": 0,
        "stickerNoiseScore": 100,
        "moderationThreshold": 25, // 5 stickers in 20 messages triggers moderation
        "messageDropOffTime": 7200, // 7200 Seconds = 2 hours
        "warningCooldown": 600, // 600 Seconds = 10 minutes
        "perUserFreeStickerCooldown": 600 // 600 Seconds = 10 minutes
    },
    "telegram": {
        "botToken": "",
        "ownerUsername": ""
    },
    "webhook": {
        "address": "",
        "port": 8443,
        "sslCertPath": "",
        "sslKeyPath": ""
    }
}